Practice with dplyr and ggplot2
…
I want to know the average democratic vote for N vs S, by year.

First, find the average democratic votes for the north and the south,
every year. You’ll need to do a double group_by()
here. You do it in one call of the function.

votedata %>%
  group_by(year, south) %>%
  summarize(avg_dem_vote = mean(demVote, na.rm = TRUE))

## `summarise()` has grouped output by 'year'. You can override using the
## `.groups` argument.

## # A tibble: 44 × 3
## # Groups:   year [22]
##     year south avg_dem_vote
##    <int> <lgl>        <dbl>
##  1  1932 FALSE         56.7
##  2  1932 TRUE          83.4
##  3  1936 FALSE         59.2
##  4  1936 TRUE          83.2
##  5  1940 FALSE         52.8
##  6  1940 TRUE          80.9
##  7  1944 FALSE         51.1
##  8  1944 TRUE          75.1
##  9  1948 FALSE         50.2
## 10  1948 TRUE          45.9
## # ℹ 34 more rows
…
